{
	"menu": [
		{
			"text": "Trang chủ",
			"url": "./index.html",
			"active": true,
			"hasIcon": false
		},
		{
			"text": "Giới thiệu",
			"url": "./about.html",
			"submenu": [
				{
					"text": "Dropdown",
					"url": "#!"
				},
				{
					"text": "Dropdown",
					"url": "#!"
				},
				{
					"text": "Dropdown",
					"url": "#!"
				},
				{
					"text": "Dropdown",
					"url": "#!",
					"submenu": [
						{
							"text": "Dropdown",
							"url": "#!"
						},
						{
							"text": "Dropdown",
							"url": "#!"
						},
						{
							"text": "Dropdown",
							"url": "#!"
						}
					]
				}
			]
		},
		{
			"text": "Sản phẩm",
			"url": "./products.html"
		},
		{
			"text": "Dự án",
			"url": "./projects.html"
		},
		{
			"text": "Hệ thống phân phối",
			"url": "./distribution.html"
		},
		{
			"text": "Tin tức",
			"url": "./news.html"
		},
		{
			"text": "Liên hệ",
			"url": "./contact.html"
		}
	],
	"pageList": {
		"data": [
			{
				"title": "Trang chủ",
				"url": "index"
			},
			{
				"title": "Giới thiệu",
				"url": "about"
			},
			{
				"title": "Sản phẩm",
				"url": "products"
			},
			{
				"title": "Chi tiết sản phẩm",
				"url": "product-detail"
			},
			{
				"title": "Tin tức",
				"url": "news"
			},
			{
				"title": "Chi tiết tin tức",
				"url": "news-detail"
			},
			{
				"title": "Liên hệ",
				"url": "contact"
			}
		]
	}
}